{
    "type": "SCS",
    "version": "20.1.5",
    "application": [
        "shopping",
        "myaccount",
        "checkout"
    ],
    "extensible_resources": [
        "skins",
        "javascript",
        "ssp-libraries",
        "sass",
        "templates",
        "services",
        "configuration",
        "assets",
        "suitescript2"
    ]
}